README
…
O vkazech MMT

Prvn krok je zskn samotnch dat, kter v dob napsn balku nejsou dostupn online. Data lze zskat bu ptelskm kontaktovn MMT, nebo formln pes dost podle zkona . 106/1999 Sb., O svobodnm pstupu k informacm (vzor dosti by ml bt snadno dohledateln). Data by mla bt zorganizovna podle ne popsanho kdovn. Po zskn sta data uloit do jedn sloky.

Data MMT jsou sbrna skrze vkazy vyplovan editeli kol. Data z jednotlivch vkaz za kad rok jsou asto rozdlen do nkolika excelovch tabulek (sheets). Balek operuje s nzvy tchto tabulek. Nzvy tabulek by mly v zlkladn podob dodrovat nsledujc formt: vXXYYaaa. Kad kd zan psmenem v. XX reprezentuje slo vkazu a YY rok. Balek obsahuje funkci, kter vrac pehled vkaz s popisy kd. Pro pepnut mstnho locale do UTF-8 encoding (pro prci se specilnmi symboly v eskm jazyce, jako je ) mete vyut funkci set_cz():

set_cz()

## [1] "LC_COLLATE=English_United States.1250;LC_CTYPE=English_United States.1250;LC_MONETARY=English_United States.1250;LC_NUMERIC=C;LC_TIME=English_United States.1250"

guide <- form_codes()
## set_cz lze vyut i pmo ve form_codes(cz = TRUE)
print(guide)

## # A tibble: 23 x 3
##    popis                                             kod_simple kod_msmt
##    <chr>                                             <chr>      <chr>   
##  1 Matersk kola 30.9.                              V01        S 1-01  
##  2 koln druina/klub 31.10.                        V02        Z 2-01  
##  3 Zkladn kola 30.9.                              V03        M 3     
##  4 M-Z pri zdravotnickm zarzen 30.9.            V04        S 4-01  
##  5 Prihlen a prijat na konzervatore 30.9.        V05        S 5-01  
##  6 Stredn kola 30.9.                               V08        M 8     
##  7 Konzervator 30.9.                                 V09        M 9     
##  8 Vy odborn kola 30.9.                         V10        M 10    
##  9 Reditelstv kol 30.9.                            V13        M 13-01 
## 10 Zarzen pro vkon stavn-ochran vchovy 31.10. V14        M 14-01 
## # ... with 13 more rows
…
Po uloen lze objekt s mapou kdykoliv nast, bu za pouit pln adresy

my_map <- readRDS("C:/EDU/Data/MSMT_data_map.RDATA")

nebo, je-li soubor v pracovnm direktorii, nzvem souboru:

my_map <- readRDS("MSMT_data_map.RDATA")

Struktura mapy

Mapa dat obsahuje ti objekty. Prvn je tabulka meta_data, kter shrnuje lokace relevantnch soubor, nzev tabulky a jeho verzi v lowercase (sheet_name a sheet), kd vkazu (form), rok (year) a poet vskyt tabulky v datech pro ppad duplikt (occurrences).

my_map$meta_data

## # A tibble: 743 x 6
## # Groups:   sheet [585]
##    directory                          sheet_name sheet   form  year  occurrences
##    <chr>                              <chr>      <chr>   <chr> <chr>       <int>
##  1 E:/EDU/Data/data/MSMT//2011_12/v0~ v0111_1    v0111_1 v01   11              1
##  2 E:/EDU/Data/data/MSMT//2011_12/v0~ v0111_2    v0111_2 v01   11              1
##  3 E:/EDU/Data/data/MSMT//2011_12/v0~ v0111o     v0111o  v01   11              1
##  4 E:/EDU/Data/data/MSMT//2011_12/v0~ v0211      v0211   v02   11              1
##  5 E:/EDU/Data/data/MSMT//2011_12/v0~ v0211o     v0211o  v02   11              1
##  6 E:/EDU/Data/data/MSMT//2011_12/v0~ v0311a_1   v0311a~ v03   11              1
##  7 E:/EDU/Data/data/MSMT//2011_12/v0~ v0311a_2   v0311a~ v03   11              1
##  8 E:/EDU/Data/data/MSMT//2011_12/v0~ v0311a_3   v0311a~ v03   11              1
##  9 E:/EDU/Data/data/MSMT//2011_12/v0~ v0311a_4   v0311a~ v03   11              1
## 10 E:/EDU/Data/data/MSMT//2011_12/v0~ v0311a_5   v0311a~ v03   11              1
## # ... with 733 more rows
…
