…
    set_cz()

    ## [1] "LC_COLLATE=English_United States.1250;LC_CTYPE=English_United States.1250;LC_MONETARY=English_United States.1250;LC_NUMERIC=C;LC_TIME=English_United States.1250"

    guide <- form_codes()
    ## set_cz lze využít i přímo ve form_codes(cz = TRUE)
    print(guide)

    ## # A tibble: 23 x 3
    ##    popis                                             kod_simple kod_msmt
    ##    <chr>                                             <chr>      <chr>   
    ##  1 Materská škola 30.9.                              V01        S 1-01  
    ##  2 Školní družina/klub 31.10.                        V02        Z 2-01  
    ##  3 Základní Škola 30.9.                              V03        M 3     
    ##  4 MŠ-ZŠ pri zdravotnickém zarízení 30.9.            V04        S 4-01  
    ##  5 Prihlášení a prijatí na konzervatore 30.9.        V05        S 5-01  
    ##  6 Strední škola 30.9.                               V08        M 8     
    ##  7 Konzervator 30.9.                                 V09        M 9     
    ##  8 Vyšší odborná škola 30.9.                         V10        M 10    
    ##  9 Reditelství škol 30.9.                            V13        M 13-01 
    ## 10 Zarízení pro výkon ústavní-ochrané výchovy 31.10. V14        M 14-01 
    ## # ... with 13 more rows
…
…nebo, je-li soubor v pracovním direktoriáři, názvem souboru:

    my_map <- readRDS("MSMT_data_map.RDATA")

### Struktura mapy

Mapa dat obsahuje tři objekty. První je tabulka *meta\_data*, která
shrnuje lokace relevantních souborů, název tabulky a jeho verzi v
lowercase (sheet\_name a sheet), kód výkazu (form), rok (year) a počet
výskytů tabulky v datech pro případ duplikátů (occurrences).

    my_map$meta_data

    ## # A tibble: 743 x 6
    ## # Groups:   sheet [585]
    ##    directory                          sheet_name sheet   form  year  occurrences
    ##    <chr>                              <chr>      <chr>   <chr> <chr>       <int>
    ##  1 E:/EDU/Data/data/MSMT//2011_12/v0~ v0111_1    v0111_1 v01   11              1
    ##  2 E:/EDU/Data/data/MSMT//2011_12/v0~ v0111_2    v0111_2 v01   11              1
    ##  3 E:/EDU/Data/data/MSMT//2011_12/v0~ v0111o     v0111o  v01   11              1
    ##  4 E:/EDU/Data/data/MSMT//2011_12/v0~ v0211      v0211   v02   11              1
    ##  5 E:/EDU/Data/data/MSMT//2011_12/v0~ v0211o     v0211o  v02   11              1
    ##  6 E:/EDU/Data/data/MSMT//2011_12/v0~ v0311a_1   v0311a~ v03   11              1
    ##  7 E:/EDU/Data/data/MSMT//2011_12/v0~ v0311a_2   v0311a~ v03   11              1
    ##  8 E:/EDU/Data/data/MSMT//2011_12/v0~ v0311a_3   v0311a~ v03   11              1
    ##  9 E:/EDU/Data/data/MSMT//2011_12/v0~ v0311a_4   v0311a~ v03   11              1
    ## 10 E:/EDU/Data/data/MSMT//2011_12/v0~ v0311a_5   v0311a~ v03   11              1
    ## # ... with 733 more rows
…
